{
    "version": "2.0.1",
    "ecs_ip_address": null,
    "dnssec": false,
    "prefer_ipv6": false,
    "dns_cache": {
        "override_ttl": 3600
    },
    "firewall": {
        "refuse_ANY": false,
        "disable_AAAA": false,
        "rate_limit": 60000,
        "client_blocklist": [],
        "client_allowlist": [],
        "default_policy": true
    },
    "rules": {
        "force_safe_search": false,
        "hosts": {
            "localhost"                        : "127.0.0.1",
            "one.one.one.one"                  : {"A": ["1.1.1.1", "1.0.0.1"]},
            "cloudflare-dns.com"               : {"A": ["104.16.248.249", "104.16.249.249"]},
            "1dot1dot1dot1.cloudflare-dns.com" : {"A": ["1.1.1.1", "1.0.0.1"]},
            "dns.google"                       : {"A": ["8.8.8.8", "8.8.4.4"]},
            "dns.google.com"                   : {"A": ["8.8.8.8", "8.8.4.4"]},
            "google-public-dns-a.google.com"   : "8.8.8.8",
            "google-public-dns-b.google.com"   : "8.8.4.4",
            "dns-nosec.quad9.net"              : "9.9.9.10",
            "dns.quad9.net"                    : {"A": ["9.9.9.9", "149.112.112.112"]},
            "dns.adguard.com"                  : {"A": ["94.140.14.14", "94.140.15.15"]},
            "dns-unfiltered.adguard.com"       : {"A": ["94.140.14.140", "94.140.14.141"]},
            "dns.alidns.com"                   : {"A": ["223.5.5.5", "223.6.6.6"]},
            "dns2.alidns.com"                  : {"A": ["223.5.5.5", "223.6.6.6"]},
            "gsh1.hsvr.haofan.dev"             : {"A": ["10.101.0.1"], "AAAA": ["fd00:d09e:2333:0001::1"]}
        }
    },
    "inbounds": [
        "udp://:::53",
        "tcp://:::53"
    ],
    "outbounds": [
        {
            "tag": "bootstrap",
            "dns": [
                "0.0.0.0"
            ],
            "domains": []
        },
        {
            "tag": "default",
            "dns": [
                "tls://one.one.one.one",
                "tls://dns.google"
            ],
            "concurrent": false,
            "domains": [
                "all"
            ]
        },
        {
            "tag": "US_General",
            "dns": [
                "tls://one.one.one.one",
                "tls://dns.google"
            ],
            "concurrent": false,
            "domains": [
                "sub:google.com",
                "sub:googlemaps.com",
                "sub:chrome.com",
                "sub:waze.com",
                "sub:goo.gl",
                "sub:g.co",
                "sub:gmail.com",
                "sub:duckduckgo.com"
            ],
            "notify": []
        },
        {
            "tag": "US_Content",
            "dns": [
                "tls://one.one.one.one",
                "tls://dns.google"
            ],
            "concurrent": false,
            "domains": [
                "sub:youtube.com",
                "sub:youtu.be",
                "sub:yt.be",
                "sub:youtube-nocookie.com",
                "sub:googlevideo.com",
                "sub:twitch.tv"
            ],
            "notify": []
        },
        {
            "tag": "US_Social",
            "dns": [
                "tls://one.one.one.one",
                "tls://dns.google"
            ],
            "concurrent": false,
            "domains": [
                "sub:facebook.com",
                "sub:fb.me",
                "sub:twitter.com",
                "sub:t.co",
                "sub:linkedin.com",
                "sub:linked.in",
                "sub:instagram.com"
            ],
            "notify": []
        },
        {
            "tag": "US_Edu",
            "dns": [
                "tls://one.one.one.one",
                "tls://dns.google"
            ],
            "concurrent": false,
            "domains": [
                "sub:edu"
            ],
            "notify": []
        },
        {
            "tag": "US_Gov",
            "dns": [
                "tls://one.one.one.one",
                "tls://dns.google"
            ],
            "concurrent": false,
            "domains": [
                "sub:gov"
            ],
            "notify": []
        },
        {
            "tag": "CN_General",
            "dns": [
                "tls://dns.alidns.com"
            ],
            "concurrent": false,
            "domains": [
                "sub:baidu.com",
                "sub:sina.com"
            ],
            "notify": []
        },
        {
            "tag": "CN_Content",
            "dns": [
                "tls://dns.alidns.com"
            ],
            "concurrent": false,
            "domains": [
                "sub:bilibili.com",
                "sub:xiami.com",
                "sub:163.com",
                "sub:iqiyi.com",
                "sub:youku.com",
                "sub:cctv.cn",
                "sub:cctv.com",
                "sub:migu.cn",
                "sub:miguvideo.com"
            ],
            "notify": []
        },
        {
            "tag": "CN_Social",
            "dns": [
                "tls://dns.alidns.com"
            ],
            "concurrent": false,
            "domains": [
                "sub:qq.com",
                "sub:weixin.com",
                "sub:weibo.com"
            ],
            "notify": []
        },
        {
            "tag": "CN_Edu",
            "dns": [
                "tls://dns.alidns.com"
            ],
            "concurrent": false,
            "domains": [
                "sub:edu.cn"
            ],
            "notify": []
        },
        {
            "tag": "CN_Gov",
            "dns": [
                "tls://dns.alidns.com"
            ],
            "concurrent": false,
            "domains": [
                "sub:gov.cn"
            ],
            "notify": []
        }
    ]
}
